transcript
# Reading C:/Users/becca/Documents/modelsim_ase/tcl/vsim/pref.tcl
do runlab.do
# ** Warning: (vlib-34) Library already exists at "work".
# Model Technology ModelSim - Intel FPGA Edition vlog 10.5b Compiler 2016.10 Oct  5 2016
# Start time: 15:59:11 on May 08,2026
# vlog -reportprogress 300 ./bitCounter_controller.sv 
# -- Compiling module bitCounter_controller
# 
# Top level modules:
# 	bitCounter_controller
# End time: 15:59:11 on May 08,2026, Elapsed time: 0:00:00
# Errors: 0, Warnings: 0
# Model Technology ModelSim - Intel FPGA Edition vlog 10.5b Compiler 2016.10 Oct  5 2016
# Start time: 15:59:11 on May 08,2026
# vlog -reportprogress 300 ./bitCounter_datapath.sv 
# -- Compiling module bitCounter_datapath
# 
# Top level modules:
# 	bitCounter_datapath
# End time: 15:59:11 on May 08,2026, Elapsed time: 0:00:00
# Errors: 0, Warnings: 0
# Model Technology ModelSim - Intel FPGA Edition vlog 10.5b Compiler 2016.10 Oct  5 2016
# Start time: 15:59:11 on May 08,2026
# vlog -reportprogress 300 ./bitCounter.sv 
# -- Compiling module bitCounter
# 
# Top level modules:
# 	bitCounter
# End time: 15:59:11 on May 08,2026, Elapsed time: 0:00:00
# Errors: 0, Warnings: 0
# Model Technology ModelSim - Intel FPGA Edition vlog 10.5b Compiler 2016.10 Oct  5 2016
# Start time: 15:59:11 on May 08,2026
# vlog -reportprogress 300 ./bitCounter_tb.sv 
# -- Compiling module bitCounter_tb
# 
# Top level modules:
# 	bitCounter_tb
# End time: 15:59:11 on May 08,2026, Elapsed time: 0:00:00
# Errors: 0, Warnings: 0
# Model Technology ModelSim - Intel FPGA Edition vlog 10.5b Compiler 2016.10 Oct  5 2016
# Start time: 15:59:12 on May 08,2026
# vlog -reportprogress 300 ./DE1_SoC.sv 
# -- Compiling module DE1_SoC
# 
# Top level modules:
# 	DE1_SoC
# End time: 15:59:12 on May 08,2026, Elapsed time: 0:00:00
# Errors: 0, Warnings: 0
# Model Technology ModelSim - Intel FPGA Edition vlog 10.5b Compiler 2016.10 Oct  5 2016
# Start time: 15:59:12 on May 08,2026
# vlog -reportprogress 300 ./binarySearch_controller.sv 
# -- Compiling module binarySearch_controller
# 
# Top level modules:
# 	binarySearch_controller
# End time: 15:59:12 on May 08,2026, Elapsed time: 0:00:00
# Errors: 0, Warnings: 0
# Model Technology ModelSim - Intel FPGA Edition vlog 10.5b Compiler 2016.10 Oct  5 2016
# Start time: 15:59:12 on May 08,2026
# vlog -reportprogress 300 ./binarySearch_datapath.sv 
# -- Compiling module binarySearch_datapath
# 
# Top level modules:
# 	binarySearch_datapath
# End time: 15:59:12 on May 08,2026, Elapsed time: 0:00:00
# Errors: 0, Warnings: 0
# Model Technology ModelSim - Intel FPGA Edition vlog 10.5b Compiler 2016.10 Oct  5 2016
# Start time: 15:59:12 on May 08,2026
# vlog -reportprogress 300 ./binarySearch.sv 
# -- Compiling module binarySearch
# 
# Top level modules:
# 	binarySearch
# End time: 15:59:12 on May 08,2026, Elapsed time: 0:00:00
# Errors: 0, Warnings: 0
# Model Technology ModelSim - Intel FPGA Edition vlog 10.5b Compiler 2016.10 Oct  5 2016
# Start time: 15:59:12 on May 08,2026
# vlog -reportprogress 300 ./binarySearch_tb.sv 
# -- Compiling module binarySearch_tb
# 
# Top level modules:
# 	binarySearch_tb
# End time: 15:59:12 on May 08,2026, Elapsed time: 0:00:00
# Errors: 0, Warnings: 0
# Model Technology ModelSim - Intel FPGA Edition vlog 10.5b Compiler 2016.10 Oct  5 2016
# Start time: 15:59:12 on May 08,2026
# vlog -reportprogress 300 ./DE1_SoC_tb.sv 
# End time: 15:59:12 on May 08,2026, Elapsed time: 0:00:00
# Errors: 0, Warnings: 0
# Model Technology ModelSim - Intel FPGA Edition vlog 10.5b Compiler 2016.10 Oct  5 2016
# Start time: 15:59:12 on May 08,2026
# vlog -reportprogress 300 ./ram32x8.v 
# -- Compiling module ram32x8
# 
# Top level modules:
# 	ram32x8
# End time: 15:59:12 on May 08,2026, Elapsed time: 0:00:00
# Errors: 0, Warnings: 0
# vsim -voptargs=""+acc"" -t 1ps -lib work binarySearch_tb -Lf altera_mf_ver 
# Start time: 15:59:12 on May 08,2026
# Loading sv_std.std
# Loading work.binarySearch_tb
# Loading work.binarySearch
# Loading work.ram32x8
# Loading altera_mf_ver.altsyncram
# Loading work.binarySearch_controller
# Loading work.binarySearch_datapath
# Loading altera_mf_ver.altsyncram_body
# Loading altera_mf_ver.ALTERA_DEVICE_FAMILIES
# Loading altera_mf_ver.ALTERA_MF_MEMORY_INITIALIZATION
# ** Warning: (vsim-3017) ./binarySearch.sv(29): [TFMPC] - Too few port connections. Expected 5, found 3.
#    Time: 0 ps  Iteration: 0  Instance: /binarySearch_tb/dut/dataSet File: ./ram32x8.v
# ** Warning: (vsim-3722) ./binarySearch.sv(29): [TFMPC] - Missing connection for port 'data'.
# ** Warning: (vsim-3722) ./binarySearch.sv(29): [TFMPC] - Missing connection for port 'wren'.
# ** Warning: (vsim-WLF-5000) WLF file currently in use: vsim.wlf
#           File in use by: becca  Hostname: WINSTON  ProcessID: 1712
#           Attempting to use alternate WLF file "./wlftygi4f2".
# ** Warning: (vsim-WLF-5001) Could not open WLF file: vsim.wlf
#           Using alternate file: ./wlftygi4f2
# ** Error: (vish-4014) No objects found matching '/binarySearch_tb/dut/d_init/low_gteq_high'.
# Executing ONERROR command at macro ./task2_wave.do line 17
# .main_pane.wave.interior.cs.body.pw.wf
# .main_pane.structure.interior.cs.body.struct
# .main_pane.objects.interior.cs.body.tree
# T= 2850, VALUE: 00000000 | FOUND: YES | ADDRESS: 0000
# T= 5150, VALUE: 00000001 | FOUND: YES | ADDRESS: 0001
# T= 7850, VALUE: 00000010 | FOUND: YES | ADDRESS: 0010
# T= 9750, VALUE: 00000011 | FOUND: YES | ADDRESS: 0011
# T= 12450, VALUE: 00000100 | FOUND: YES | ADDRESS: 0100
# T= 14750, VALUE: 00000101 | FOUND: YES | ADDRESS: 0101
# T= 17450, VALUE: 00000110 | FOUND: YES | ADDRESS: 0110
# T= 18950, VALUE: 00000111 | FOUND: YES | ADDRESS: 0111
# T= 21650, VALUE: 00001000 | FOUND: YES | ADDRESS: 1000
# T= 23950, VALUE: 00001001 | FOUND: YES | ADDRESS: 1001
# T= 26650, VALUE: 00001010 | FOUND: YES | ADDRESS: 1010
# T= 28550, VALUE: 00001011 | FOUND: YES | ADDRESS: 1011
# T= 31250, VALUE: 00001100 | FOUND: YES | ADDRESS: 1100
# T= 33550, VALUE: 00001101 | FOUND: YES | ADDRESS: 1101
# T= 36250, VALUE: 00001110 | FOUND: YES | ADDRESS: 1110
# T= 36950, VALUE: 00001111 | FOUND: YES | ADDRESS: 1111
# T= 39650, VALUE: 00010000 | FOUND: YES | ADDRESS: 10000
# T= 41950, VALUE: 00010001 | FOUND: YES | ADDRESS: 10001
# T= 44650, VALUE: 00010010 | FOUND: YES | ADDRESS: 10010
# T= 46550, VALUE: 00010011 | FOUND: YES | ADDRESS: 10011
# T= 49250, VALUE: 00010100 | FOUND: YES | ADDRESS: 10100
# T= 51550, VALUE: 00010101 | FOUND: YES | ADDRESS: 10101
# T= 54250, VALUE: 00010110 | FOUND: YES | ADDRESS: 10110
# T= 55750, VALUE: 00010111 | FOUND: YES | ADDRESS: 10111
# T= 58450, VALUE: 00011000 | FOUND: YES | ADDRESS: 11000
# T= 60750, VALUE: 00011001 | FOUND: YES | ADDRESS: 11001
# T= 63450, VALUE: 00011010 | FOUND: YES | ADDRESS: 11010
# T= 65350, VALUE: 00011011 | FOUND: YES | ADDRESS: 11011
# T= 68050, VALUE: 00011100 | FOUND: YES | ADDRESS: 11100
# T= 70350, VALUE: 00011101 | FOUND: YES | ADDRESS: 11101
# T= 73050, VALUE: 00011110 | FOUND: YES | ADDRESS: 11110
# T= 76150, VALUE: 00011111 | FOUND: YES | ADDRESS: 11111
# T= 79050, VALUE: 00100000 | FOUND:  NO | ADDRESS: 11110
# T= 81950, VALUE: 00100001 | FOUND:  NO | ADDRESS: 11110
# T= 84850, VALUE: 00100010 | FOUND:  NO | ADDRESS: 11110
# T= 87750, VALUE: 00100011 | FOUND:  NO | ADDRESS: 11110
# T= 90650, VALUE: 00100100 | FOUND:  NO | ADDRESS: 11110
# T= 93550, VALUE: 00100101 | FOUND:  NO | ADDRESS: 11110
# T= 96450, VALUE: 00100110 | FOUND:  NO | ADDRESS: 11110
# T= 99350, VALUE: 00100111 | FOUND:  NO | ADDRESS: 11110
# T= 102250, VALUE: 00101000 | FOUND:  NO | ADDRESS: 11110
# T= 105150, VALUE: 00101001 | FOUND:  NO | ADDRESS: 11110
# T= 108050, VALUE: 00101010 | FOUND:  NO | ADDRESS: 11110
# T= 110950, VALUE: 00101011 | FOUND:  NO | ADDRESS: 11110
# T= 113850, VALUE: 00101100 | FOUND:  NO | ADDRESS: 11110
# T= 116750, VALUE: 00101101 | FOUND:  NO | ADDRESS: 11110
# T= 119650, VALUE: 00101110 | FOUND:  NO | ADDRESS: 11110
# T= 122550, VALUE: 00101111 | FOUND:  NO | ADDRESS: 11110
# T= 125450, VALUE: 00110000 | FOUND:  NO | ADDRESS: 11110
# T= 128350, VALUE: 00110001 | FOUND:  NO | ADDRESS: 11110
# T= 131250, VALUE: 00110010 | FOUND:  NO | ADDRESS: 11110
# T= 134150, VALUE: 00110011 | FOUND:  NO | ADDRESS: 11110
# T= 137050, VALUE: 00110100 | FOUND:  NO | ADDRESS: 11110
# T= 139950, VALUE: 00110101 | FOUND:  NO | ADDRESS: 11110
# T= 142850, VALUE: 00110110 | FOUND:  NO | ADDRESS: 11110
# T= 145750, VALUE: 00110111 | FOUND:  NO | ADDRESS: 11110
# T= 148650, VALUE: 00111000 | FOUND:  NO | ADDRESS: 11110
# T= 151550, VALUE: 00111001 | FOUND:  NO | ADDRESS: 11110
# T= 154450, VALUE: 00111010 | FOUND:  NO | ADDRESS: 11110
# T= 157350, VALUE: 00111011 | FOUND:  NO | ADDRESS: 11110
# T= 160250, VALUE: 00111100 | FOUND:  NO | ADDRESS: 11110
# T= 163150, VALUE: 00111101 | FOUND:  NO | ADDRESS: 11110
# T= 166050, VALUE: 00111110 | FOUND:  NO | ADDRESS: 11110
# T= 168950, VALUE: 00111111 | FOUND:  NO | ADDRESS: 11110
# T= 171850, VALUE: 01000000 | FOUND:  NO | ADDRESS: 11110
# T= 174750, VALUE: 01000001 | FOUND:  NO | ADDRESS: 11110
# T= 177650, VALUE: 01000010 | FOUND:  NO | ADDRESS: 11110
# T= 180550, VALUE: 01000011 | FOUND:  NO | ADDRESS: 11110
# T= 183450, VALUE: 01000100 | FOUND:  NO | ADDRESS: 11110
# T= 186350, VALUE: 01000101 | FOUND:  NO | ADDRESS: 11110
# T= 189250, VALUE: 01000110 | FOUND:  NO | ADDRESS: 11110
# T= 192150, VALUE: 01000111 | FOUND:  NO | ADDRESS: 11110
# T= 195050, VALUE: 01001000 | FOUND:  NO | ADDRESS: 11110
# T= 197950, VALUE: 01001001 | FOUND:  NO | ADDRESS: 11110
# T= 200850, VALUE: 01001010 | FOUND:  NO | ADDRESS: 11110
# T= 203750, VALUE: 01001011 | FOUND:  NO | ADDRESS: 11110
# T= 206650, VALUE: 01001100 | FOUND:  NO | ADDRESS: 11110
# T= 209550, VALUE: 01001101 | FOUND:  NO | ADDRESS: 11110
# T= 212450, VALUE: 01001110 | FOUND:  NO | ADDRESS: 11110
# T= 215350, VALUE: 01001111 | FOUND:  NO | ADDRESS: 11110
# T= 218250, VALUE: 01010000 | FOUND:  NO | ADDRESS: 11110
# T= 221150, VALUE: 01010001 | FOUND:  NO | ADDRESS: 11110
# T= 224050, VALUE: 01010010 | FOUND:  NO | ADDRESS: 11110
# T= 226950, VALUE: 01010011 | FOUND:  NO | ADDRESS: 11110
# T= 229850, VALUE: 01010100 | FOUND:  NO | ADDRESS: 11110
# T= 232750, VALUE: 01010101 | FOUND:  NO | ADDRESS: 11110
# T= 235650, VALUE: 01010110 | FOUND:  NO | ADDRESS: 11110
# T= 238550, VALUE: 01010111 | FOUND:  NO | ADDRESS: 11110
# T= 241450, VALUE: 01011000 | FOUND:  NO | ADDRESS: 11110
# T= 244350, VALUE: 01011001 | FOUND:  NO | ADDRESS: 11110
# T= 247250, VALUE: 01011010 | FOUND:  NO | ADDRESS: 11110
# T= 250150, VALUE: 01011011 | FOUND:  NO | ADDRESS: 11110
# T= 253050, VALUE: 01011100 | FOUND:  NO | ADDRESS: 11110
# T= 255950, VALUE: 01011101 | FOUND:  NO | ADDRESS: 11110
# T= 258850, VALUE: 01011110 | FOUND:  NO | ADDRESS: 11110
# T= 261750, VALUE: 01011111 | FOUND:  NO | ADDRESS: 11110
# T= 264650, VALUE: 01100000 | FOUND:  NO | ADDRESS: 11110
# T= 267550, VALUE: 01100001 | FOUND:  NO | ADDRESS: 11110
# T= 270450, VALUE: 01100010 | FOUND:  NO | ADDRESS: 11110
# T= 273350, VALUE: 01100011 | FOUND:  NO | ADDRESS: 11110
# T= 276250, VALUE: 01100100 | FOUND:  NO | ADDRESS: 11110
# T= 279150, VALUE: 01100101 | FOUND:  NO | ADDRESS: 11110
# T= 282050, VALUE: 01100110 | FOUND:  NO | ADDRESS: 11110
# T= 284950, VALUE: 01100111 | FOUND:  NO | ADDRESS: 11110
# T= 287850, VALUE: 01101000 | FOUND:  NO | ADDRESS: 11110
# T= 290750, VALUE: 01101001 | FOUND:  NO | ADDRESS: 11110
# T= 293650, VALUE: 01101010 | FOUND:  NO | ADDRESS: 11110
# T= 296550, VALUE: 01101011 | FOUND:  NO | ADDRESS: 11110
# T= 299450, VALUE: 01101100 | FOUND:  NO | ADDRESS: 11110
# T= 302350, VALUE: 01101101 | FOUND:  NO | ADDRESS: 11110
# T= 305250, VALUE: 01101110 | FOUND:  NO | ADDRESS: 11110
# T= 308150, VALUE: 01101111 | FOUND:  NO | ADDRESS: 11110
# T= 311050, VALUE: 01110000 | FOUND:  NO | ADDRESS: 11110
# T= 313950, VALUE: 01110001 | FOUND:  NO | ADDRESS: 11110
# T= 316850, VALUE: 01110010 | FOUND:  NO | ADDRESS: 11110
# T= 319750, VALUE: 01110011 | FOUND:  NO | ADDRESS: 11110
# T= 322650, VALUE: 01110100 | FOUND:  NO | ADDRESS: 11110
# T= 325550, VALUE: 01110101 | FOUND:  NO | ADDRESS: 11110
# T= 328450, VALUE: 01110110 | FOUND:  NO | ADDRESS: 11110
# T= 331350, VALUE: 01110111 | FOUND:  NO | ADDRESS: 11110
# T= 334250, VALUE: 01111000 | FOUND:  NO | ADDRESS: 11110
# T= 337150, VALUE: 01111001 | FOUND:  NO | ADDRESS: 11110
# T= 340050, VALUE: 01111010 | FOUND:  NO | ADDRESS: 11110
# T= 342950, VALUE: 01111011 | FOUND:  NO | ADDRESS: 11110
# T= 345850, VALUE: 01111100 | FOUND:  NO | ADDRESS: 11110
# T= 348750, VALUE: 01111101 | FOUND:  NO | ADDRESS: 11110
# T= 351650, VALUE: 01111110 | FOUND:  NO | ADDRESS: 11110
# T= 354550, VALUE: 01111111 | FOUND:  NO | ADDRESS: 11110
# T= 357450, VALUE: 10000000 | FOUND:  NO | ADDRESS: 11110
# T= 360350, VALUE: 10000001 | FOUND:  NO | ADDRESS: 11110
# T= 363250, VALUE: 10000010 | FOUND:  NO | ADDRESS: 11110
# T= 366150, VALUE: 10000011 | FOUND:  NO | ADDRESS: 11110
# T= 369050, VALUE: 10000100 | FOUND:  NO | ADDRESS: 11110
# T= 371950, VALUE: 10000101 | FOUND:  NO | ADDRESS: 11110
# T= 374850, VALUE: 10000110 | FOUND:  NO | ADDRESS: 11110
# T= 377750, VALUE: 10000111 | FOUND:  NO | ADDRESS: 11110
# T= 380650, VALUE: 10001000 | FOUND:  NO | ADDRESS: 11110
# T= 383550, VALUE: 10001001 | FOUND:  NO | ADDRESS: 11110
# T= 386450, VALUE: 10001010 | FOUND:  NO | ADDRESS: 11110
# T= 389350, VALUE: 10001011 | FOUND:  NO | ADDRESS: 11110
# T= 392250, VALUE: 10001100 | FOUND:  NO | ADDRESS: 11110
# T= 395150, VALUE: 10001101 | FOUND:  NO | ADDRESS: 11110
# T= 398050, VALUE: 10001110 | FOUND:  NO | ADDRESS: 11110
# T= 400950, VALUE: 10001111 | FOUND:  NO | ADDRESS: 11110
# T= 403850, VALUE: 10010000 | FOUND:  NO | ADDRESS: 11110
# T= 406750, VALUE: 10010001 | FOUND:  NO | ADDRESS: 11110
# T= 409650, VALUE: 10010010 | FOUND:  NO | ADDRESS: 11110
# T= 412550, VALUE: 10010011 | FOUND:  NO | ADDRESS: 11110
# T= 415450, VALUE: 10010100 | FOUND:  NO | ADDRESS: 11110
# T= 418350, VALUE: 10010101 | FOUND:  NO | ADDRESS: 11110
# T= 421250, VALUE: 10010110 | FOUND:  NO | ADDRESS: 11110
# T= 424150, VALUE: 10010111 | FOUND:  NO | ADDRESS: 11110
# T= 427050, VALUE: 10011000 | FOUND:  NO | ADDRESS: 11110
# T= 429950, VALUE: 10011001 | FOUND:  NO | ADDRESS: 11110
# T= 432850, VALUE: 10011010 | FOUND:  NO | ADDRESS: 11110
# T= 435750, VALUE: 10011011 | FOUND:  NO | ADDRESS: 11110
# T= 438650, VALUE: 10011100 | FOUND:  NO | ADDRESS: 11110
# T= 441550, VALUE: 10011101 | FOUND:  NO | ADDRESS: 11110
# T= 444450, VALUE: 10011110 | FOUND:  NO | ADDRESS: 11110
# T= 447350, VALUE: 10011111 | FOUND:  NO | ADDRESS: 11110
# T= 450250, VALUE: 10100000 | FOUND:  NO | ADDRESS: 11110
# T= 453150, VALUE: 10100001 | FOUND:  NO | ADDRESS: 11110
# T= 456050, VALUE: 10100010 | FOUND:  NO | ADDRESS: 11110
# T= 458950, VALUE: 10100011 | FOUND:  NO | ADDRESS: 11110
# T= 461850, VALUE: 10100100 | FOUND:  NO | ADDRESS: 11110
# T= 464750, VALUE: 10100101 | FOUND:  NO | ADDRESS: 11110
# T= 467650, VALUE: 10100110 | FOUND:  NO | ADDRESS: 11110
# T= 470550, VALUE: 10100111 | FOUND:  NO | ADDRESS: 11110
# T= 473450, VALUE: 10101000 | FOUND:  NO | ADDRESS: 11110
# T= 476350, VALUE: 10101001 | FOUND:  NO | ADDRESS: 11110
# T= 479250, VALUE: 10101010 | FOUND:  NO | ADDRESS: 11110
# T= 482150, VALUE: 10101011 | FOUND:  NO | ADDRESS: 11110
# T= 485050, VALUE: 10101100 | FOUND:  NO | ADDRESS: 11110
# T= 487950, VALUE: 10101101 | FOUND:  NO | ADDRESS: 11110
# T= 490850, VALUE: 10101110 | FOUND:  NO | ADDRESS: 11110
# T= 493750, VALUE: 10101111 | FOUND:  NO | ADDRESS: 11110
# T= 496650, VALUE: 10110000 | FOUND:  NO | ADDRESS: 11110
# T= 499550, VALUE: 10110001 | FOUND:  NO | ADDRESS: 11110
# T= 502450, VALUE: 10110010 | FOUND:  NO | ADDRESS: 11110
# T= 505350, VALUE: 10110011 | FOUND:  NO | ADDRESS: 11110
# T= 508250, VALUE: 10110100 | FOUND:  NO | ADDRESS: 11110
# T= 511150, VALUE: 10110101 | FOUND:  NO | ADDRESS: 11110
# T= 514050, VALUE: 10110110 | FOUND:  NO | ADDRESS: 11110
# T= 516950, VALUE: 10110111 | FOUND:  NO | ADDRESS: 11110
# T= 519850, VALUE: 10111000 | FOUND:  NO | ADDRESS: 11110
# T= 522750, VALUE: 10111001 | FOUND:  NO | ADDRESS: 11110
# T= 525650, VALUE: 10111010 | FOUND:  NO | ADDRESS: 11110
# T= 528550, VALUE: 10111011 | FOUND:  NO | ADDRESS: 11110
# T= 531450, VALUE: 10111100 | FOUND:  NO | ADDRESS: 11110
# T= 534350, VALUE: 10111101 | FOUND:  NO | ADDRESS: 11110
# T= 537250, VALUE: 10111110 | FOUND:  NO | ADDRESS: 11110
# T= 540150, VALUE: 10111111 | FOUND:  NO | ADDRESS: 11110
# T= 543050, VALUE: 11000000 | FOUND:  NO | ADDRESS: 11110
# T= 545950, VALUE: 11000001 | FOUND:  NO | ADDRESS: 11110
# T= 548850, VALUE: 11000010 | FOUND:  NO | ADDRESS: 11110
# T= 551750, VALUE: 11000011 | FOUND:  NO | ADDRESS: 11110
# T= 554650, VALUE: 11000100 | FOUND:  NO | ADDRESS: 11110
# T= 557550, VALUE: 11000101 | FOUND:  NO | ADDRESS: 11110
# T= 560450, VALUE: 11000110 | FOUND:  NO | ADDRESS: 11110
# T= 563350, VALUE: 11000111 | FOUND:  NO | ADDRESS: 11110
# T= 566250, VALUE: 11001000 | FOUND:  NO | ADDRESS: 11110
# T= 569150, VALUE: 11001001 | FOUND:  NO | ADDRESS: 11110
# T= 572050, VALUE: 11001010 | FOUND:  NO | ADDRESS: 11110
# T= 574950, VALUE: 11001011 | FOUND:  NO | ADDRESS: 11110
# T= 577850, VALUE: 11001100 | FOUND:  NO | ADDRESS: 11110
# T= 580750, VALUE: 11001101 | FOUND:  NO | ADDRESS: 11110
# T= 583650, VALUE: 11001110 | FOUND:  NO | ADDRESS: 11110
# T= 586550, VALUE: 11001111 | FOUND:  NO | ADDRESS: 11110
# T= 589450, VALUE: 11010000 | FOUND:  NO | ADDRESS: 11110
# T= 592350, VALUE: 11010001 | FOUND:  NO | ADDRESS: 11110
# T= 595250, VALUE: 11010010 | FOUND:  NO | ADDRESS: 11110
# T= 598150, VALUE: 11010011 | FOUND:  NO | ADDRESS: 11110
# T= 601050, VALUE: 11010100 | FOUND:  NO | ADDRESS: 11110
# T= 603950, VALUE: 11010101 | FOUND:  NO | ADDRESS: 11110
# T= 606850, VALUE: 11010110 | FOUND:  NO | ADDRESS: 11110
# T= 609750, VALUE: 11010111 | FOUND:  NO | ADDRESS: 11110
# T= 612650, VALUE: 11011000 | FOUND:  NO | ADDRESS: 11110
# T= 615550, VALUE: 11011001 | FOUND:  NO | ADDRESS: 11110
# T= 618450, VALUE: 11011010 | FOUND:  NO | ADDRESS: 11110
# T= 621350, VALUE: 11011011 | FOUND:  NO | ADDRESS: 11110
# T= 624250, VALUE: 11011100 | FOUND:  NO | ADDRESS: 11110
# T= 627150, VALUE: 11011101 | FOUND:  NO | ADDRESS: 11110
# T= 630050, VALUE: 11011110 | FOUND:  NO | ADDRESS: 11110
# T= 632950, VALUE: 11011111 | FOUND:  NO | ADDRESS: 11110
# T= 635850, VALUE: 11100000 | FOUND:  NO | ADDRESS: 11110
# T= 638750, VALUE: 11100001 | FOUND:  NO | ADDRESS: 11110
# T= 641650, VALUE: 11100010 | FOUND:  NO | ADDRESS: 11110
# T= 644550, VALUE: 11100011 | FOUND:  NO | ADDRESS: 11110
# T= 647450, VALUE: 11100100 | FOUND:  NO | ADDRESS: 11110
# T= 650350, VALUE: 11100101 | FOUND:  NO | ADDRESS: 11110
# T= 653250, VALUE: 11100110 | FOUND:  NO | ADDRESS: 11110
# T= 656150, VALUE: 11100111 | FOUND:  NO | ADDRESS: 11110
# T= 659050, VALUE: 11101000 | FOUND:  NO | ADDRESS: 11110
# T= 661950, VALUE: 11101001 | FOUND:  NO | ADDRESS: 11110
# T= 664850, VALUE: 11101010 | FOUND:  NO | ADDRESS: 11110
# T= 667750, VALUE: 11101011 | FOUND:  NO | ADDRESS: 11110
# T= 670650, VALUE: 11101100 | FOUND:  NO | ADDRESS: 11110
# T= 673550, VALUE: 11101101 | FOUND:  NO | ADDRESS: 11110
# T= 676450, VALUE: 11101110 | FOUND:  NO | ADDRESS: 11110
# T= 679350, VALUE: 11101111 | FOUND:  NO | ADDRESS: 11110
# T= 682250, VALUE: 11110000 | FOUND:  NO | ADDRESS: 11110
# T= 685150, VALUE: 11110001 | FOUND:  NO | ADDRESS: 11110
# T= 688050, VALUE: 11110010 | FOUND:  NO | ADDRESS: 11110
# T= 690950, VALUE: 11110011 | FOUND:  NO | ADDRESS: 11110
# T= 693850, VALUE: 11110100 | FOUND:  NO | ADDRESS: 11110
# T= 696750, VALUE: 11110101 | FOUND:  NO | ADDRESS: 11110
# T= 699650, VALUE: 11110110 | FOUND:  NO | ADDRESS: 11110
# T= 702550, VALUE: 11110111 | FOUND:  NO | ADDRESS: 11110
# T= 705450, VALUE: 11111000 | FOUND:  NO | ADDRESS: 11110
# T= 708350, VALUE: 11111001 | FOUND:  NO | ADDRESS: 11110
# T= 711250, VALUE: 11111010 | FOUND:  NO | ADDRESS: 11110
# T= 714150, VALUE: 11111011 | FOUND:  NO | ADDRESS: 11110
# T= 717050, VALUE: 11111100 | FOUND:  NO | ADDRESS: 11110
# T= 719950, VALUE: 11111101 | FOUND:  NO | ADDRESS: 11110
# T= 722850, VALUE: 11111110 | FOUND:  NO | ADDRESS: 11110
# ** Note: $stop    : ./binarySearch_tb.sv(45)
#    Time: 722950 ps  Iteration: 1  Instance: /binarySearch_tb
# Break in Module binarySearch_tb at ./binarySearch_tb.sv line 45
